{
  "endRow": 18,
  "firstPage": 1,
  "hasNextPage": true,
  "hasPreviousPage": true,
  "isFirstPage": false,
  "isLastPage": false,
  "lastPage": 8,
  "list": [
    {
      "delFlag": 0,
      "updateBy": 0,
      "upgraderVersionChildType": 0,
      "upgraderVersionColor": 5,
      "upgraderVersionDescription": "适用于所有酒类、饮料等其他类型的网站",
      "upgraderVersionDownload": 85,
      "upgraderVersionImg": "/upload/mstore///1517489171698.jpg",
      "upgraderVersionIndustry": 5,
      "upgraderVersionMobileImg": "",
      "upgraderVersionModelId": 0,
      "upgraderVersionName": "精品包装白酒类网站模板",
      "upgraderVersionNo": 101,
      "upgraderVersionOriginal": 0,
      "upgraderVersionOriginalRefer": "",
      "upgraderVersionPeopleIcon": "http://wx.qlogo.cn/mmopen/fbGR46BSRo53YmrUlwBVaSpDf7vtbIGfoLdOjpwORpmfOqKzOSAcL8PGkB0mGvXPVwuDYS9xlZGlAFRMmJldoibIn0NOYetfR/0",
      "upgraderVersionPeopleId": 9714,
      "upgraderVersionPeopleName": "空白",
      "upgraderVersionPrice": 0,
      "upgraderVersionProgress": 4,
      "upgraderVersionProgressDatetime": 1517488618000,
      "upgraderVersionProgressTitle": "分享成功",
      "upgraderVersionStart": 3,
      "upgraderVersionStatus": 1,
      "upgraderVersionTime": 1517488505000,
      "upgraderVersionType": 2,
      "upgraderVersionUrl": "http://bbs.mingsoft.net/mbbs/16083/detail.do"
    },
    {
      "delFlag": 0,
      "updateBy": 0,
      "upgraderVersionChildType": 0,
      "upgraderVersionColor": 3,
      "upgraderVersionDescription": "适用于所有律师、法律、思政等其他类型的网站",
      "upgraderVersionDownload": 135,
      "upgraderVersionImg": "/upload/mstore///1517540951591.jpg",
      "upgraderVersionIndustry": 13,
      "upgraderVersionMobileImg": "",
      "upgraderVersionModelId": 0,
      "upgraderVersionName": "律师事务所网站模板",
      "upgraderVersionNo": 104,
      "upgraderVersionOriginal": 0,
      "upgraderVersionOriginalRefer": "",
      "upgraderVersionPeopleIcon": "http://wx.qlogo.cn/mmopen/fbGR46BSRo53YmrUlwBVaSpDf7vtbIGfoLdOjpwORpmfOqKzOSAcL8PGkB0mGvXPVwuDYS9xlZGlAFRMmJldoibIn0NOYetfR/0",
      "upgraderVersionPeopleId": 9714,
      "upgraderVersionPeopleName": "空白",
      "upgraderVersionPrice": 0,
      "upgraderVersionProgress": 4,
      "upgraderVersionProgressDatetime": 1517487016000,
      "upgraderVersionProgressTitle": "分享成功",
      "upgraderVersionStart": 3,
      "upgraderVersionStatus": 1,
      "upgraderVersionTime": 1517486974000,
      "upgraderVersionType": 2,
      "upgraderVersionUrl": "http://bbs.mingsoft.net/mbbs/16082/detail.do"
    },
    {
      "delFlag": 0,
      "updateBy": 0,
      "upgraderVersionChildType": 0,
      "upgraderVersionColor": 1,
      "upgraderVersionDescription": "适用于人民政府，信息人民交流，等模板",
      "upgraderVersionDownload": 332,
      "upgraderVersionImg": "/upload/mstore///1517479293761.jpg",
      "upgraderVersionIndustry": 13,
      "upgraderVersionMobileImg": "",
      "upgraderVersionModelId": 0,
      "upgraderVersionName": "仿人民政府类网站模板",
      "upgraderVersionNo": 103,
      "upgraderVersionOriginal": 1,
      "upgraderVersionOriginalRefer": "",
      "upgraderVersionPeopleIcon": "http://wx.qlogo.cn/mmopen/RWqY568gYoIsZ2SSPwvtTTfL6mkwnjJZ6wMM6vN5znooHXr8skFOhIurx1GDPOa91WAJKKL26fVzQ415YOaX8aI1wS8c9Fr6/0",
      "upgraderVersionPeopleId": 11830,
      "upgraderVersionPeopleName": "顾伟东",
      "upgraderVersionPrice": 0,
      "upgraderVersionProgress": 4,
      "upgraderVersionProgressDatetime": 1517479281000,
      "upgraderVersionProgressTitle": "分享成功",
      "upgraderVersionStart": 3,
      "upgraderVersionStatus": 1,
      "upgraderVersionTime": 1515807300000,
      "upgraderVersionType": 2,
      "upgraderVersionUrl": "http://bbs.mingsoft.net/mbbs/16081/detail.do"
    },
    {
      "delFlag": 0,
      "updateBy": 0,
      "upgraderVersionChildType": 0,
      "upgraderVersionColor": 5,
      "upgraderVersionDescription": "适用于信息、科技等其他公司官网模板",
      "upgraderVersionDownload": 535,
      "upgraderVersionImg": "/upload/mstore///1517478840948.jpg",
      "upgraderVersionIndustry": 1,
      "upgraderVersionMobileImg": "",
      "upgraderVersionModelId": 0,
      "upgraderVersionName": "信息科技公司网站模板",
      "upgraderVersionNo": 105,
      "upgraderVersionOriginal": 1,
      "upgraderVersionOriginalRefer": "",
      "upgraderVersionPeopleIcon": "http://wx.qlogo.cn/mmopen/RWqY568gYoIsZ2SSPwvtTTfL6mkwnjJZ6wMM6vN5znooHXr8skFOhIurx1GDPOa91WAJKKL26fVzQ415YOaX8aI1wS8c9Fr6/0",
      "upgraderVersionPeopleId": 11830,
      "upgraderVersionPeopleName": "顾伟东",
      "upgraderVersionPrice": 0,
      "upgraderVersionProgress": 4,
      "upgraderVersionProgressDatetime": 1515806081000,
      "upgraderVersionProgressTitle": "分享成功",
      "upgraderVersionStart": 3,
      "upgraderVersionStatus": 1,
      "upgraderVersionTime": 1515664930000,
      "upgraderVersionType": 2,
      "upgraderVersionUrl": "http://bbs.mingsoft.net/mbbs/16080/detail.do"
    },
    {
      "delFlag": 0,
      "updateBy": 0,
      "upgraderVersionChildType": 0,
      "upgraderVersionColor": 6,
      "upgraderVersionDescription": "特效大气碧绿手机端响应式家政服务公司模板",
      "upgraderVersionDownload": 55,
      "upgraderVersionImg": "/upload/mstore///1517478752423.jpg",
      "upgraderVersionIndustry": 11,
      "upgraderVersionMobileImg": "",
      "upgraderVersionModelId": 0,
      "upgraderVersionName": "大气绿色响应式家政服务月嫂公司月子模板",
      "upgraderVersionNo": 103,
      "upgraderVersionOriginal": 1,
      "upgraderVersionOriginalRefer": "",
      "upgraderVersionPeopleIcon": "http://wx.qlogo.cn/mmopen/RWqY568gYoIsZ2SSPwvtTTfL6mkwnjJZ6wMM6vN5znooHXr8skFOhIurx1GDPOa91WAJKKL26fVzQ415YOaX8aI1wS8c9Fr6/0",
      "upgraderVersionPeopleId": 11830,
      "upgraderVersionPeopleName": "顾伟东",
      "upgraderVersionPrice": 0,
      "upgraderVersionProgress": 4,
      "upgraderVersionProgressDatetime": 1515545742000,
      "upgraderVersionProgressTitle": "分享成功",
      "upgraderVersionStart": 3,
      "upgraderVersionStatus": 1,
      "upgraderVersionTime": 1515212504000,
      "upgraderVersionType": 2,
      "upgraderVersionUrl": "http://bbs.mingsoft.net/mbbs/16079/detail.do"
    },
    {
      "delFlag": 0,
      "updateBy": 0,
      "upgraderVersionChildType": 0,
      "upgraderVersionColor": 1,
      "upgraderVersionDescription": "用于家具橱柜销售精品模板，红色的主色调，结构精简。",
      "upgraderVersionDownload": 56,
      "upgraderVersionImg": "/upload/mstore/1516786367216.jpg",
      "upgraderVersionIndustry": 4,
      "upgraderVersionMobileImg": "",
      "upgraderVersionModelId": 0,
      "upgraderVersionName": "红色精简橱柜销售模板",
      "upgraderVersionNo": 103,
      "upgraderVersionOriginal": 1,
      "upgraderVersionOriginalRefer": "",
      "upgraderVersionPeopleIcon": "http://wx.qlogo.cn/mmopen/RWqY568gYoIsZ2SSPwvtTTfL6mkwnjJZ6wMM6vN5znooHXr8skFOhIurx1GDPOa91WAJKKL26fVzQ415YOaX8aI1wS8c9Fr6/0",
      "upgraderVersionPeopleId": 11830,
      "upgraderVersionPeopleName": "顾伟东",
      "upgraderVersionPrice": 0,
      "upgraderVersionProgress": 4,
      "upgraderVersionProgressDatetime": 1515059132000,
      "upgraderVersionProgressTitle": "分享成功",
      "upgraderVersionStart": 3,
      "upgraderVersionStatus": 1,
      "upgraderVersionTime": 1515058962000,
      "upgraderVersionType": 2,
      "upgraderVersionUrl": "http://bbs.mingsoft.net/mbbs/16022/detail.do"
    },
    {
      "delFlag": 0,
      "updateBy": 0,
      "upgraderVersionChildType": 0,
      "upgraderVersionColor": 3,
      "upgraderVersionDescription": "机械零配件企业网站模板适用于所有的关于机械、零配件等其他的类型的网站",
      "upgraderVersionDownload": 75,
      "upgraderVersionImg": "/upload/mstore///1517563396193.jpg",
      "upgraderVersionIndustry": 15,
      "upgraderVersionMobileImg": "",
      "upgraderVersionModelId": 0,
      "upgraderVersionName": "机械零配件企业网站模板",
      "upgraderVersionNo": 102,
      "upgraderVersionOriginal": 1,
      "upgraderVersionOriginalRefer": "",
      "upgraderVersionPeopleIcon": "http://wx.qlogo.cn/mmopen/fbGR46BSRo53YmrUlwBVaSpDf7vtbIGfoLdOjpwORpmfOqKzOSAcL8PGkB0mGvXPVwuDYS9xlZGlAFRMmJldoibIn0NOYetfR/0",
      "upgraderVersionPeopleId": 9714,
      "upgraderVersionPeopleName": "空白",
      "upgraderVersionPrice": 0,
      "upgraderVersionProgress": 4,
      "upgraderVersionProgressDatetime": 1516842631000,
      "upgraderVersionProgressTitle": "分享成功",
      "upgraderVersionStart": 3,
      "upgraderVersionStatus": 1,
      "upgraderVersionTime": 1514863996000,
      "upgraderVersionType": 2,
      "upgraderVersionUrl": "http://bbs.mingsoft.net/mbbs/16085/detail.do"
    },
    {
      "delFlag": 0,
      "updateBy": 0,
      "upgraderVersionChildType": 0,
      "upgraderVersionColor": 1,
      "upgraderVersionDescription": "适用于所有政府、机关、等其他类型的企业",
      "upgraderVersionDownload": 140,
      "upgraderVersionImg": "/upload/mstore//1516859271218.jpg",
      "upgraderVersionIndustry": 13,
      "upgraderVersionMobileImg": "",
      "upgraderVersionModelId": 0,
      "upgraderVersionName": "政府网站模板",
      "upgraderVersionNo": 106,
      "upgraderVersionOriginal": 1,
      "upgraderVersionOriginalRefer": "",
      "upgraderVersionPeopleIcon": "http://wx.qlogo.cn/mmopen/fbGR46BSRo53YmrUlwBVaSpDf7vtbIGfoLdOjpwORpmfOqKzOSAcL8PGkB0mGvXPVwuDYS9xlZGlAFRMmJldoibIn0NOYetfR/0",
      "upgraderVersionPeopleId": 9714,
      "upgraderVersionPeopleName": "空白",
      "upgraderVersionPrice": 0,
      "upgraderVersionProgress": 4,
      "upgraderVersionProgressDatetime": 1514861303000,
      "upgraderVersionProgressTitle": "分享成功",
      "upgraderVersionStart": 3,
      "upgraderVersionStatus": 1,
      "upgraderVersionTime": 1514453703000,
      "upgraderVersionType": 2,
      "upgraderVersionUrl": "http://bbs.mingsoft.net/mbbs/16019/detail.do"
    },
    {
      "delFlag": 0,
      "updateBy": 0,
      "upgraderVersionChildType": 0,
      "upgraderVersionColor": 1,
      "upgraderVersionDescription": "红色大气汽车4s店汽车销售公司模板",
      "upgraderVersionDownload": 42,
      "upgraderVersionImg": "/upload/mstore/1504147790723.634Z.jpg",
      "upgraderVersionIndustry": 14,
      "upgraderVersionMobileImg": "",
      "upgraderVersionModelId": 0,
      "upgraderVersionName": "红色大气汽车4s店汽车销售公司模板",
      "upgraderVersionNo": 102,
      "upgraderVersionOriginal": 1,
      "upgraderVersionOriginalRefer": "",
      "upgraderVersionPeopleIcon": "http://wx.qlogo.cn/mmopen/RWqY568gYoJgbxlopUtG4eylP8ibic6mPXZnH823wkj4HpjZejLsfMuibYMsqp4aURjxibjZRMaqeGuu2ehkYMe6zC70p8qrG0Gc/0",
      "upgraderVersionPeopleId": 11525,
      "upgraderVersionPeopleName": "LULUS.",
      "upgraderVersionPrice": 0,
      "upgraderVersionProgress": 4,
      "upgraderVersionProgressDatetime": 1499417110000,
      "upgraderVersionProgressTitle": "分享成功",
      "upgraderVersionStart": 3,
      "upgraderVersionStatus": 1,
      "upgraderVersionTime": 1499413539000,
      "upgraderVersionType": 2,
      "upgraderVersionUrl": "http://bbs.mingsoft.net/mbbs/15662/detail.do"
    }
  ],
  "navigatePages": 8,
  "navigatepageNums": [1, 2, 3, 4, 5, 6, 7, 8],
  "nextPage": 3,
  "pageNum": 2,
  "pageSize": 9,
  "pages": 28,
  "prePage": 1,
  "size": 9,
  "startRow": 10,
  "total": 248
}
